1 DOSball dos_is_not_a_boss d0sbAll123 user
32666 Tim kek mM1 user
32726 Tim mMm mM1 user
32727 Rasul rasul 1Qwerty Admin
32728 Somebody smb mM2 admin
32729 Mavrodi mMmm mMm1 admin 4 1 32666 32726 32728
